Stat 585 - Working with lists
…
map applies function to list object (apply)

unnest moves list results back into a data frame (combine)

nest

nest is a function in tidyr: creates variable data

data is variable of data frames

movieList <- movies %>% nest(-Movie, -Release) 
movieList 

## # A tibble: 1,387 × 3
##                           Movie    Release              data
##                          <fctr>     <fctr>            <list>
## 1                         Split 2017-01-17 <tibble [2 × 10]>
## 2               A Dog’s Purpose 2017-01-24 <tibble [1 × 10]>
## 3                Hidden Figures 2016-12-22 <tibble [6 × 10]>
## 4  Resident Evil: The Final Ch… 2017-01-24 <tibble [1 × 10]>
## 5                    La La Land 2016-12-06 <tibble [8 × 10]>
## 6    xXx: Return of Xander Cage 2017-01-17 <tibble [2 × 10]>
## 7                          Sing 2016-12-18 <tibble [6 × 10]>
## 8  Rogue One: A Star Wars Story 2016-12-13 <tibble [7 × 10]>
## 9                Monster Trucks 2017-01-10 <tibble [3 × 10]>
## 10                         Gold 2017-01-24 <tibble [1 × 10]>
## # ... with 1,377 more rows

Nested data frames

movieList$Movie[456]

## [1] Zootopia
## 1386 Levels: ’71 1,000 Rupee Note ... Zootopia

movieList$data[[456]] %>% arrange(Days)

## # A tibble: 22 × 10
##          Date  Rank Rank.Last.Week  Days Distributor    Gross    Change
##        <fctr> <int>          <int> <int>      <fctr>    <dbl>     <dbl>
## 1  2016-03-04     1             NA     3 Walt Disney 75063401        NA
## 2  2016-03-11     1              1    10 Walt Disney 51339887 -31.60464
## 3  2016-03-18     1              1    17 Walt Disney 37164158 -27.61153
## 4  2016-03-25     2              1    24 Walt Disney 24022288 -35.36168
## 5  2016-04-01     2              2    31 Walt Disney 19325291 -19.55266
## 6  2016-04-08     3              2    38 Walt Disney 14345422 -25.76866
## 7  2016-04-15     5              3    45 Walt Disney  8142641 -43.23875
## 8  2016-04-22     4              5    52 Walt Disney  6579545 -19.19643
## 9  2016-04-29     6              4    59 Walt Disney  5328858 -19.00872
## 10 2016-05-06     6              6    66 Walt Disney  3214592 -39.67578
## # ... with 12 more rows, and 3 more variables: Total.Gross <int>,
## #   Theaters <int>, Per.Theater <dbl>
…
