Stat 585 - Working with lists
…
map applies function to list object (apply)

unnest moves list results back into a data frame (combine)

nest

nest is a function in tidyr: creates variable data

data is variable of data frames

gapminder2 <- gapminder %>% mutate(year = year-1950)
countryList <- gapminder2 %>% nest(-country, -continent) 
countryList 

## # A tibble: 142 × 3
##        country continent              data
##         <fctr>    <fctr>            <list>
## 1  Afghanistan      Asia <tibble [12 × 4]>
## 2      Albania    Europe <tibble [12 × 4]>
## 3      Algeria    Africa <tibble [12 × 4]>
## 4       Angola    Africa <tibble [12 × 4]>
## 5    Argentina  Americas <tibble [12 × 4]>
## 6    Australia   Oceania <tibble [12 × 4]>
## 7      Austria    Europe <tibble [12 × 4]>
## 8      Bahrain      Asia <tibble [12 × 4]>
## 9   Bangladesh      Asia <tibble [12 × 4]>
## 10     Belgium    Europe <tibble [12 × 4]>
## # ... with 132 more rows
…
Ready to fly!

The opposite of nest is unnest:

coefs <- countryList %>% select(country, continent, coefs) %>% 
  unnest()
coefs

## # A tibble: 284 × 7
##        country continent        term   estimate   std.error  statistic
##         <fctr>    <fctr>       <chr>      <dbl>       <dbl>      <dbl>
## 1  Afghanistan      Asia (Intercept) 29.3566375 0.698981278  41.999176
## 2  Afghanistan      Asia        year  0.2753287 0.020450934  13.462890
## 3      Albania    Europe (Intercept) 58.5597618 1.133575812  51.659325
## 4      Albania    Europe        year  0.3346832 0.033166387  10.091036
## 5      Algeria    Africa (Intercept) 42.2364149 0.756269040  55.848399
## 6      Algeria    Africa        year  0.5692797 0.022127070  25.727749
## 7       Angola    Africa (Intercept) 31.7079741 0.804287463  39.423683
## 8       Angola    Africa        year  0.2093399 0.023532003   8.895964
## 9    Argentina  Americas (Intercept) 62.2250191 0.167091314 372.401279
## 10   Argentina  Americas        year  0.2317084 0.004888791  47.395847
## # ... with 274 more rows, and 1 more variables: p.value <dbl>
…
