Stat 585 - Working in teams: Sample solution for the test case
…
Open the file in RStudio.

“Knit” the file.

What is the relationship between height and weight?

Read the data:

iowa <- readr::read_csv("https://github.com/Stat585-at-ISU/materials/raw/master/01_collaborative-environment/data/brfss_iowa.csv") 
# the read_csv function from the readr package is faster than the standard read.csv
# but the output is a tibble (we'll come back to that)
iowa

## # A tibble: 6,227 × 330
##    X_STATE FMONTH    IDATE IMONTH  IDAY IYEAR DISPCODE      SEQNO
##      <int>  <int>    <chr>  <chr> <chr> <int>    <int>      <int>
## 1       19      7 07082015     07    08  2015     1200 2015000001
## 2       19      3 03212015     03    21  2015     1200 2015000002
## 3       19     10 01102016     01    10  2016     1200 2015000003
## 4       19      4 05092015     05    09  2015     1200 2015000004
## 5       19      5 06242015     06    24  2015     1200 2015000005
## 6       19      7 08032015     08    03  2015     1200 2015000006
## 7       19      7 08122015     08    12  2015     1200 2015000007
## 8       19      7 08102015     08    10  2015     1200 2015000008
## 9       19     10 11152015     11    15  2015     1200 2015000009
## 10      19      8 08132015     08    13  2015     1200 2015000010
## # ... with 6,217 more rows, and 322 more variables: X_PSU <int>,
## #   CTELENUM <int>, PVTRESD1 <int>, COLGHOUS <int>, STATERES <int>,
## #   CELLFON3 <int>, LADULT <int>, NUMADULT <int>, NUMMEN <int>,
## #   NUMWOMEN <int>, CTELNUM1 <int>, CELLFON2 <int>, CADULT <int>,
## #   PVTRESD2 <int>, CCLGHOUS <chr>, CSTATE <int>, LANDLINE <int>,
## #   HHADULT <int>, GENHLTH <int>, PHYSHLTH <int>, MENTHLTH <int>,
## #   POORHLTH <int>, HLTHPLN1 <int>, PERSDOC2 <int>, MEDCOST <int>,
## #   CHECKUP1 <int>, BPHIGH4 <int>, BPMEDS <int>, BLOODCHO <int>,
## #   CHOLCHK <int>, TOLDHI2 <int>, CVDINFR4 <int>, CVDCRHD4 <int>,
…
##     HEIGHT3           HTIN4            HTM4           height     
##  Min.   : 405.0   Min.   :53.00   Min.   :135.0   Min.   :134.6  
##  1st Qu.: 504.0   1st Qu.:64.00   1st Qu.:163.0   1st Qu.:162.6  
##  Median : 507.0   Median :67.00   Median :170.0   Median :170.2  
##  Mean   : 747.9   Mean   :67.12   Mean   :170.5   Mean   :170.5  
##  3rd Qu.: 511.0   3rd Qu.:70.00   3rd Qu.:178.0   3rd Qu.:177.8  
##  Max.   :9999.0   Max.   :82.00   Max.   :208.0   Max.   :208.3  
##                   NA's   :161     NA's   :139     NA's   :139

Why are there more missing values in HTIN4?

iowa %>% filter(is.na(HTIN4), !is.na(HTM4)) %>% select(HEIGHT3)

## # A tibble: 22 × 1
##    HEIGHT3
##      <int>
## 1     9178
## 2     9143
## 3     9170
## 4     9165
## 5     9180
## 6     9170
## 7     9160
## 8     9170
## 9     9178
## 10    9170
## # ... with 12 more rows
…
