Stat 585 - numeric summaries with dplyr and tidyr
…
“Introduce a variable” means, we have to use mutate

“each chick” indicates that we need a grouping structure at the chick level

Question #1

Beyond that structure, it is just some logic to figure out the weight gain:

ChickPlus <- ChickWeight %>% 
  group_by(Chick) %>% 
  mutate(gain = weight - weight[Time == 0])

ChickPlus

## Source: local data frame [578 x 5]
## Groups: Chick [50]
## 
##    weight  Time Chick   Diet  gain
##     <dbl> <dbl> <ord> <fctr> <dbl>
## 1      42     0     1      1     0
## 2      51     2     1      1     9
## 3      59     4     1      1    17
## 4      64     6     1      1    22
## 5      76     8     1      1    34
## 6      93    10     1      1    51
## 7     106    12     1      1    64
## 8     125    14     1      1    83
## 9     149    16     1      1   107
## 10    171    18     1      1   129
## # ... with 568 more rows
…
