Stat 585 - numeric summaries with dplyr and tidyr
…
french_fries %>%
    summarise(mean_rancid = mean(rancid, na.rm=TRUE), 
              sd_rancid = sd(rancid, na.rm = TRUE))

##   mean_rancid sd_rancid
## 1     3.85223  3.781815

Summarise and Group_by

french_fries %>%
    group_by(time, treatment) %>%
    summarise(mean_rancid = mean(rancid), sd_rancid = sd(rancid))

## Source: local data frame [30 x 4]
## Groups: time [?]
## 
##      time treatment mean_rancid sd_rancid
##    <fctr>    <fctr>       <dbl>     <dbl>
## 1       1         1    2.758333  3.212870
## 2       1         2    1.716667  2.714801
## 3       1         3    2.600000  3.202037
## 4       2         1    3.900000  4.374730
## 5       2         2    2.141667  3.117540
## 6       2         3    2.495833  3.378767
## 7       3         1    4.650000  3.933358
## 8       3         2    2.895833  3.773532
## 9       3         3    3.600000  3.592867
## 10      4         1    2.079167  2.394737
## # ... with 20 more rows
…
summarize(n = n()) is equivalent to tally()

group_by(week, subject) %>% summarize(n = n()) is equivalent to count(week, subject)

Are replicates similar?

reps <- french_fries %>% group_by(time, subject, treatment) %>%
  summarise(
    potato_diff = diff(potato),
    potato = mean(potato)
  )
reps

## Source: local data frame [348 x 5]
## Groups: time, subject [?]
## 
##      time subject treatment potato_diff potato
##    <fctr>  <fctr>    <fctr>       <dbl>  <dbl>
## 1       1       3         1        11.1   8.45
## 2       1       3         2        -0.5  13.65
## 3       1       3         3        -4.6  11.80
## 4       1      10         1        -1.1  10.45
## 5       1      10         2         1.7  10.15
## 6       1      10         3        -1.2  10.70
## 7       1      15         1         7.6   5.00
## 8       1      15         2        -2.0   8.00
## 9       1      15         3         2.2   6.90
## 10      1      16         1        -0.8   8.60
## # ... with 338 more rows
…
