Stat 585 - numeric summaries with tidyr
…
# if we get an error with a message about the length of a dataset we know we have a problem
movie <- box %>% group_by(Movie) %>% summarize(
  Distributor = unique(Distributor) 
)

Error: expecting a single value

Bingo! but what now?

box %>% group_by(Movie) %>% summarize(
  Distributor = length(unique(Distributor))
) %>% arrange(desc(Distributor))

## # A tibble: 1,386 × 2
##                           Movie Distributor
##                          <fctr>       <int>
## 1                      Girlhood           2
## 2                   The Witness           2
## 3                           ’71           1
## 4              1,000 Rupee Note           1
## 5           10 Cloverfield Lane           1
## 6         10 Days in a Madhouse           1
## 7  13 Hours: The Secret Soldie…           1
## 8                          1915           1
## 9             2015 Oscar Shorts           1
## 10            2016 Oscar Shorts           1
## # ... with 1,376 more rows
…
# days and per theatre gross:
box <- box %>% ungroup() %>% mutate(
  Days_new = lubridate::ymd(date) - lubridate::ymd(Release),
  Per.Theater = Gross/Thtrs.
) 
box %>% select(Movie, Days, Days_new)

## # A tibble: 10,327 × 3
##                           Movie  Days Days_new
##                          <fctr> <dbl>   <time>
## 1                         Split    10  10 days
## 2               A Dog’s Purpose     3   3 days
## 3                Hidden Figures    36  36 days
## 4  Resident Evil: The Final Ch…     3   3 days
## 5                    La La Land    52  52 days
## 6    xXx: Return of Xander Cage    10  10 days
## 7                          Sing    40  40 days
## 8  Rogue One: A Star Wars Story    45  45 days
## 9                Monster Trucks    17  17 days
## 10                         Gold     3   3 days
## # ... with 10,317 more rows
…
box %>% ungroup() %>%  filter(Gross_new <0) %>% select(Movie, date, Gross, Gross_new, Total.Gross) %>% arrange(Gross_new)

## # A tibble: 34 × 5
##                           Movie       date  Gross Gross_new Total.Gross
##                          <fctr>     <fctr>  <dbl>     <dbl>       <dbl>
## 1  The Hunger Games: Mockingja… 2016-02-12 308370 -54787187   281340856
## 2  The Hunger Games: Mockingja… 2016-02-19 192870 -54744318   281666058
## 3  The Hunger Games: Mockingja… 2016-02-05 162227 -54728905   280976000
## 4  The Hunger Games: Mockingja… 2016-01-29 380044 -54280391   280847534
## 5            The Lion in Winter 2017-01-20    692 -22275822       18177
## 6            Born to be Wild 3D 2015-10-30   1010 -21957516     2439919
## 7  Daughters of the Dust (Re-I… 2016-12-02   7232  -1641815       40465
## 8         The Battle of Algiers 2016-12-02    725   -798615       55102
## 9               Army of Shadows 2015-11-20   1946   -722470       27396
## 10                The Third Man 2015-11-06    572   -559097      445344
## # ... with 24 more rows
…
